module gitlab.com/firerainos/firerain-home/go

go 1.17

require (
	github.com/go-flutter-desktop/go-flutter v0.43.0
	github.com/pkg/errors v0.9.1
)

require (
	github.com/Xuanwo/go-locale v1.0.0 // indirect
	github.com/go-gl/gl v0.0.0-20190320180904-bf2b1f2f34d7 // indirect
	github.com/go-gl/glfw/v3.3/glfw v0.0.0-20201108214237-06ea97f0c265 // indirect
	golang.org/x/sys v0.0.0-20200802091954-4b90ce9b60b3 // indirect
	golang.org/x/text v0.3.5 // indirect
)
